<svg xmlns="http://www.w3.org/2000/svg" xmlns:xlink="http://www.w3.org/1999/xlink" width="240" height="240" viewBox="0 0 240 240">
  <defs>
    <rect id="icon-a" width="240" height="240" rx="20"/>
  </defs>
  <g fill="none" fill-rule="evenodd">
    <mask id="icon-b" fill="#fff">
      <use xlink:href="#icon-a"/>
    </mask>
    <use fill="#361C14" xlink:href="#icon-a"/>
    <path fill="#FFB500" d="M-4.48530102e-14,7.10542736e-15 L240,7.10542736e-15 C240,5.72395833 240,11.8333333 240,18.328125 C127.414062,18.328125 47.4140625,37.9518229 -4.48530102e-14,77.1992188 L-4.48530102e-14,7.10542736e-15 Z" mask="url(#icon-b)"/>
  </g>
</svg>
